<svg width="48" height="48" viewBox="0 0 48 48" fill="none" xmlns="http://www.w3.org/2000/svg">
<path d="M16.6701 16.5632L1.27749 17.7508C0.408274 17.8179 0.0351323 18.8876 0.674035 19.4807L11.9621 29.9606C12.2254 30.205 12.3373 30.5719 12.2553 30.9217L8.5798 46.5972C8.37471 47.4718 9.33739 48.1523 10.0935 47.6671L23.3279 39.1742C23.6546 38.9645 24.0732 38.9629 24.4015 39.17L37.8778 47.6716C38.6401 48.1525 39.5996 47.4587 39.3817 46.5841L35.4832 30.9354C35.3942 30.5785 35.5085 30.2016 35.7805 29.954L47.2897 19.4826C47.9377 18.8931 47.5682 17.8144 46.6948 17.746L31.5835 16.5624C31.2058 16.5328 30.8773 16.2924 30.7349 15.9413L24.8273 1.37656C24.4848 0.532162 23.2836 0.54843 22.9641 1.40179L17.5297 15.9168C17.3933 16.2811 17.0579 16.5333 16.6701 16.5632Z" fill="#FFD017"/>
</svg>
